<svg width="12" height="12" viewBox="0 0 12 12" fill="none" xmlns="http://www.w3.org/2000/svg">
<path d="M6.03616 0.863281C3.19976 0.863281 0.898438 3.16445 0.898438 6.001C0.898438 8.83756 3.19976 11.1387 6.03616 11.1387C8.87271 11.1387 11.1739 8.83756 11.1739 6.001C11.1739 3.16445 8.87271 0.863281 6.03616 0.863281ZM6.03616 9.33372C4.19605 9.33372 2.70345 7.84127 2.70345 6.001C2.70345 4.16074 4.19605 2.66829 6.03616 2.66829C7.87642 2.66829 9.36887 4.16074 9.36887 6.001C9.36887 7.84127 7.87642 9.33372 6.03616 9.33372Z" fill="#A7A7A1"/>
</svg>
